INDEX VERSION 1.130+E:\LAB\seleniumPractice\.metadata\.plugins\org.eclipse.jdt.core
4222298462.index
1654674800.index
1686655237.index
1890755656.index
134360950.index
3608585563.index
543409727.index
963218585.index
892534813.index
42451041.index
1014674287.index
2075892729.index
817575114.index
3627084181.index
99476311.index
25573128.index
2583444606.index
988643314.index
189530877.index
1056031855.index
176725946.index
4062329064.index
1840453350.index
1924480154.index
943770255.index
1282715103.index
2827289537.index
1496435372.index
332743728.index
2987306841.index
3111678650.index
4170763302.index
1774926312.index
3578140096.index
3260662740.index
2816613229.index
197789008.index
2306851957.index
2257619687.index
3340505943.index
3449055620.index
2536302491.index
2790746079.index
754902020.index
2725125150.index
3982276604.index
2745570983.index
1391881641.index
3856563927.index
4076017659.index
1704593087.index
3145607036.index
2999916922.index
